<?xml version="1.0" standalone="no"?>
<!DOCTYPE svg PUBLIC "-//W3C//DTD SVG 20010904//EN"
 "http://www.w3.org/TR/2001/REC-SVG-20010904/DTD/svg10.dtd">
<svg version="1.0" xmlns="http://www.w3.org/2000/svg"
 width="1616.000000pt" height="1616.000000pt" viewBox="0 0 1616.000000 1616.000000"
 preserveAspectRatio="xMidYMid meet">
<metadata>
Created by potrace 1.11, written by Peter Selinger 2001-2013
</metadata>
<g transform="translate(0.000000,1616.000000) scale(0.100000,-0.100000)"
fill="#000000" stroke="none">
<path d="M9305 11175 c-82 -19 -163 -36 -180 -38 -16 -3 -77 -15 -135 -27 -58
-12 -116 -24 -130 -27 -14 -2 -45 -9 -70 -14 -25 -6 -54 -12 -65 -14 -11 -2
-31 -6 -45 -9 -14 -2 -45 -9 -70 -15 -25 -5 -58 -12 -74 -15 -27 -5 -97 -19
-151 -31 -11 -2 -175 -36 -365 -75 -407 -84 -377 -78 -415 -86 -16 -4 -39 -8
-50 -10 -11 -2 -29 -5 -40 -8 -19 -4 -260 -54 -300 -62 -11 -2 -40 -8 -65 -14
-25 -6 -61 -12 -80 -14 -19 -3 -35 -5 -35 -6 0 -1 -7 -3 -15 -5 -8 -1 -49 -10
-90 -19 -41 -9 -86 -18 -100 -21 -14 -2 -79 -16 -145 -30 -66 -14 -133 -27
-150 -30 -16 -3 -37 -8 -45 -10 -8 -2 -31 -7 -50 -10 -19 -3 -51 -10 -70 -15
-19 -5 -53 -12 -75 -15 -22 -4 -56 -10 -75 -15 -19 -5 -51 -12 -70 -15 -19 -3
-55 -11 -80 -16 -25 -6 -58 -13 -75 -16 -36 -6 -43 -11 -24 -17 8 -3 73 -26
144 -51 72 -25 137 -48 145 -50 8 -2 16 -4 18 -5 1 -2 5 -3 10 -5 4 -1 14 -4
22 -8 8 -3 44 -15 80 -27 36 -12 69 -26 74 -31 6 -5 20 -9 32 -9 13 0 25 -4
28 -9 3 -4 20 -12 38 -16 18 -4 35 -9 38 -10 3 -1 18 -7 33 -13 16 -7 33 -12
38 -12 5 0 17 -4 27 -9 9 -5 46 -19 82 -31 36 -12 74 -26 85 -30 11 -5 40 -16
65 -24 25 -8 83 -29 130 -46 47 -17 108 -38 135 -47 28 -8 54 -19 59 -24 6 -5
18 -9 28 -9 10 0 26 -4 36 -10 9 -5 44 -18 77 -29 33 -11 77 -27 97 -35 21 -9
39 -16 40 -15 2 0 10 -2 18 -5 90 -33 226 -81 270 -96 30 -10 80 -28 110 -40
49 -19 147 -52 160 -54 3 -1 10 -4 15 -7 8 -5 105 -39 125 -44 3 -1 12 -4 20
-8 8 -3 49 -17 90 -32 41 -14 84 -30 95 -35 11 -5 43 -16 70 -25 73 -24 247
-85 270 -95 32 -15 228 -80 231 -77 2 1 37 132 48 182 8 30 21 79 42 156 14
47 27 96 29 108 2 13 7 31 10 41 3 10 8 27 10 37 2 10 11 45 20 78 9 33 32
121 51 195 19 74 37 142 39 150 2 8 18 69 35 135 17 66 38 145 46 175 9 30 17
62 19 70 2 8 11 44 20 80 9 36 18 70 20 75 1 6 4 17 8 25 6 17 35 131 43 170
3 14 8 34 11 45 4 11 8 25 9 31 1 6 5 21 9 33 8 26 16 27 -170 -14z"/>
<path d="M9645 11162 c-4 -20 -9 -48 -11 -62 -3 -14 -8 -34 -11 -45 -3 -11 -7
-29 -8 -41 -3 -18 -15 -80 -31 -154 -3 -14 -7 -34 -9 -45 -1 -11 -11 -58 -20
-105 -9 -47 -19 -94 -21 -105 -2 -11 -6 -30 -9 -42 -3 -13 -7 -33 -10 -45 -3
-13 -7 -36 -9 -53 -4 -27 -17 -88 -29 -141 -3 -12 -8 -37 -11 -55 -3 -19 -8
-45 -11 -59 -4 -14 -8 -34 -10 -45 -2 -11 -13 -65 -24 -120 -11 -55 -22 -113
-25 -130 -20 -96 -16 -76 -55 -272 -33 -164 -35 -177 -23 -169 6 3 165 42 332
81 8 2 65 16 125 30 61 15 124 29 140 32 17 3 38 9 47 14 9 5 21 9 25 8 4 -1
10 -1 13 1 3 1 16 4 29 6 14 2 52 12 85 20 34 9 68 17 76 19 8 2 35 8 60 15
25 7 55 14 66 16 12 2 88 20 170 40 82 20 156 37 164 39 8 2 80 19 160 39 123
29 236 56 300 71 159 37 269 68 324 94 37 17 69 31 71 31 1 0 55 25 120 55 64
30 118 55 120 55 2 0 51 23 110 50 59 28 108 50 110 50 2 0 52 23 110 50 58
28 108 50 110 50 4 0 51 21 212 96 29 14 55 24 58 24 3 -1 18 6 33 14 25 14
115 56 247 116 62 28 251 113 325 147 30 14 66 29 79 34 13 5 21 12 18 15 -6
6 -12 7 -127 19 -36 3 -76 8 -90 11 -14 2 -47 7 -75 9 -27 3 -66 7 -85 10 -54
7 -110 14 -170 20 -55 5 -85 9 -170 21 -25 3 -61 7 -80 9 -94 9 -158 16 -185
20 -16 2 -52 6 -80 9 -27 3 -61 8 -75 10 -25 5 -113 14 -200 22 -25 2 -61 7
-80 10 -19 3 -55 7 -80 9 -25 2 -61 6 -80 9 -32 5 -66 10 -170 21 -19 2 -75 9
-125 15 -49 6 -112 13 -140 15 -27 3 -67 7 -87 10 -21 3 -55 7 -75 10 -21 3
-60 7 -88 10 -27 2 -61 6 -75 9 -14 3 -52 7 -85 11 -33 3 -73 7 -90 9 -16 2
-61 7 -100 11 -38 4 -77 8 -85 10 -8 2 -44 6 -80 10 -36 3 -76 8 -90 10 -14 2
-52 6 -85 10 -33 3 -73 8 -90 11 -16 3 -48 7 -70 9 -22 2 -61 6 -85 9 -54 7
-127 15 -195 22 -27 2 -64 6 -81 9 -30 4 -32 2 -39 -33z"/>
<path d="M13060 10649 c-80 -44 -174 -97 -210 -116 -36 -20 -116 -65 -179 -99
-62 -35 -114 -64 -116 -64 -1 0 -46 -25 -100 -55 -53 -30 -101 -55 -106 -55
-5 0 -9 -5 -9 -12 0 -6 -3 -8 -7 -5 -3 4 -11 3 -17 -2 -6 -5 -38 -24 -71 -41
-33 -18 -67 -39 -76 -46 -8 -8 -23 -14 -31 -14 -9 0 -18 -3 -20 -7 -1 -5 -32
-23 -68 -42 -36 -19 -103 -56 -149 -83 -46 -26 -90 -48 -97 -48 -8 0 -14 -4
-14 -9 0 -5 -14 -14 -30 -21 -32 -13 -32 -22 -2 -27 13 -2 251 -49 347 -69 11
-2 31 -6 45 -9 14 -3 43 -8 65 -11 22 -3 43 -8 47 -10 4 -3 22 -7 40 -9 18 -3
43 -7 56 -10 49 -11 69 -15 122 -25 30 -6 66 -13 80 -16 14 -3 34 -7 45 -9 48
-8 82 -15 113 -24 18 -5 35 -10 37 -10 6 1 81 -12 110 -17 11 -3 54 -11 95
-19 98 -20 110 -22 140 -29 14 -3 36 -8 50 -10 14 -3 36 -7 50 -10 28 -6 110
-23 155 -31 87 -17 167 -32 205 -41 14 -3 36 -7 50 -10 14 -2 45 -9 70 -14 55
-13 83 -18 134 -26 22 -3 44 -7 47 -10 4 -2 24 -6 44 -10 21 -3 46 -8 56 -10
53 -12 68 -15 119 -24 30 -6 66 -13 80 -16 14 -3 39 -7 55 -10 17 -2 41 -7 55
-10 l25 -6 -25 29 c-14 15 -32 36 -40 45 -16 18 -16 18 -70 88 -19 25 -40 51
-48 58 -7 8 -25 30 -40 50 -34 47 -62 81 -84 104 -10 10 -18 22 -18 27 0 5 -4
11 -8 13 -4 2 -23 23 -42 48 -19 24 -41 51 -48 58 -7 8 -25 30 -40 50 -15 20
-37 48 -49 62 -12 14 -126 156 -255 317 -128 160 -246 308 -263 328 -16 21
-31 42 -33 46 -7 17 -28 8 -172 -72z"/>
<path d="M13361 10653 c18 -21 36 -40 39 -43 3 -3 30 -34 60 -70 30 -36 57
-67 60 -70 4 -3 89 -102 190 -220 102 -118 190 -221 197 -228 7 -7 29 -34 50
-59 21 -26 45 -54 53 -63 8 -9 38 -43 66 -75 28 -33 71 -82 95 -110 43 -50 57
-67 92 -108 10 -12 31 -35 45 -52 15 -16 44 -51 65 -77 l39 -47 56 4 c32 3 91
7 132 10 41 3 100 7 130 10 30 2 91 7 135 10 44 3 105 8 135 10 30 3 87 7 125
10 258 17 271 19 237 39 -11 6 -33 18 -49 27 -15 8 -84 48 -153 89 -69 40
-143 83 -165 95 -94 52 -441 255 -451 264 -7 5 -27 17 -45 26 -50 23 -147 79
-161 93 -7 7 -15 12 -20 12 -4 0 -45 22 -90 49 -46 27 -99 58 -118 69 -97 54
-238 136 -257 148 -13 8 -25 14 -28 14 -3 -1 -17 8 -32 20 -14 11 -32 20 -39
20 -8 0 -14 4 -14 10 0 5 -11 12 -25 16 -14 3 -25 10 -25 15 0 5 -4 9 -9 9 -6
0 -38 17 -73 37 -35 21 -72 43 -83 50 -11 6 -36 20 -55 29 -19 10 -54 31 -76
46 -59 39 -74 35 -33 -9z"/>
<path d="M5810 10446 c0 -7 -20 -89 -46 -182 -39 -145 -108 -406 -120 -454 -2
-8 -35 -132 -74 -275 -38 -143 -72 -269 -74 -280 -2 -11 -28 -105 -56 -210
-29 -104 -54 -197 -56 -205 -2 -8 -11 -42 -20 -75 -9 -33 -18 -69 -21 -80 -7
-30 -9 -38 -16 -60 -3 -11 -9 -31 -11 -45 -3 -14 -19 -71 -34 -127 -16 -57
-27 -103 -25 -103 2 0 -1 -9 -7 -20 -13 -24 -3 -25 50 -9 19 5 42 12 50 14 8
2 30 8 48 14 17 5 32 7 32 4 0 -3 6 -1 13 4 12 9 102 39 142 47 11 2 40 11 65
19 52 18 319 98 334 101 15 3 168 50 291 89 55 17 105 32 110 32 6 0 28 6 50
13 22 6 43 11 48 12 4 0 21 7 37 15 17 9 30 13 30 11 0 -3 12 -1 28 5 15 6 34
12 42 14 8 2 92 26 185 55 94 28 202 60 240 71 39 11 77 23 85 26 8 3 20 7 25
9 15 3 139 40 235 69 47 14 94 27 105 29 11 2 31 8 45 14 14 6 52 18 85 27 33
10 80 24 105 32 25 8 50 16 55 17 6 2 30 9 55 16 25 7 50 14 55 16 6 1 71 21
145 44 74 23 144 43 155 46 30 8 34 9 115 33 41 13 104 32 140 44 36 12 67 21
70 22 57 7 128 45 85 45 -8 0 -23 4 -33 10 -9 5 -78 34 -152 64 -541 217 -664
267 -674 274 -6 3 -14 7 -18 8 -5 1 -10 3 -13 4 -3 1 -9 3 -13 4 -7 1 -44 16
-127 52 -16 7 -55 22 -85 34 -30 12 -66 27 -80 33 -14 5 -29 11 -35 13 -5 2
-93 37 -195 79 -270 111 -741 302 -850 345 -30 11 -68 27 -85 35 -66 30 -159
65 -172 65 -7 0 -13 5 -13 10 0 6 -3 9 -7 8 -5 0 -17 3 -28 7 -11 4 -41 16
-67 27 -27 10 -70 27 -98 38 -38 15 -50 17 -50 6z"/>
<path d="M5588 10343 c-41 -32 -87 -67 -103 -78 -15 -11 -42 -32 -59 -46 -17
-14 -107 -83 -201 -154 -93 -71 -174 -133 -180 -137 -21 -18 -293 -225 -338
-258 -26 -19 -57 -43 -70 -54 -12 -10 -83 -64 -157 -120 -74 -55 -142 -108
-151 -116 -38 -33 -54 -45 -71 -55 -9 -5 -84 -62 -165 -125 -148 -114 -162
-122 -293 -155 -8 -2 -134 -38 -280 -80 -146 -42 -272 -78 -280 -80 -8 -2
-235 -67 -505 -145 -269 -78 -499 -143 -510 -146 -11 -2 -105 -29 -210 -59
-104 -31 -197 -57 -205 -59 -47 -12 -170 -50 -167 -52 2 -2 37 -6 78 -10 40
-3 90 -7 109 -10 19 -2 64 -6 100 -9 36 -3 88 -8 115 -11 28 -4 70 -7 95 -9
48 -3 123 -10 230 -21 36 -4 81 -8 100 -10 19 -1 35 -3 35 -3 0 -1 27 -4 60
-6 33 -2 85 -7 115 -10 76 -7 165 -15 225 -20 28 -2 70 -6 95 -9 44 -5 126
-13 225 -22 120 -10 174 -15 235 -21 36 -3 79 -7 95 -8 17 -2 30 -3 30 -4 0
-1 27 -4 60 -6 33 -2 83 -6 110 -9 28 -2 86 -8 130 -12 44 -3 94 -8 110 -10
17 -2 62 -6 100 -9 39 -4 84 -8 100 -10 17 -1 68 -6 115 -10 47 -4 99 -9 115
-10 17 -2 62 -6 100 -10 39 -3 84 -7 100 -9 28 -3 194 -18 205 -18 30 -1 40 6
49 35 9 31 83 245 103 296 5 14 10 28 10 31 0 3 5 16 10 30 11 27 69 189 148
410 26 74 78 221 115 325 37 105 83 235 101 290 19 55 39 109 44 120 5 11 23
61 40 110 17 50 39 110 48 135 9 25 17 50 18 55 2 11 41 120 54 150 21 51 99
279 96 282 -1 2 -37 -23 -78 -54z"/>
<path d="M11199 9689 c-20 -4 -47 -10 -60 -13 -25 -5 -36 -8 -109 -25 -25 -5
-76 -17 -115 -26 -38 -9 -97 -23 -130 -30 -33 -8 -71 -17 -85 -20 -26 -5 -100
-22 -135 -30 -11 -3 -29 -7 -41 -9 -11 -2 -49 -11 -85 -20 -63 -15 -220 -52
-269 -62 -14 -3 -65 -14 -115 -25 -49 -12 -97 -22 -105 -24 -8 -2 -35 -8 -60
-14 -25 -7 -56 -14 -70 -17 -14 -2 -33 -7 -42 -10 -10 -3 -30 -8 -45 -10 -15
-3 -63 -14 -108 -24 -45 -10 -92 -21 -105 -24 -14 -3 -45 -10 -70 -17 -25 -6
-56 -13 -70 -15 -13 -3 -26 -7 -28 -8 -2 -3 94 -137 141 -196 7 -8 23 -31 36
-50 14 -19 32 -42 40 -51 9 -9 34 -43 56 -74 35 -51 79 -110 103 -140 4 -5 21
-28 37 -50 17 -22 34 -44 38 -50 57 -71 387 -519 387 -525 0 -5 4 -10 8 -12 8
-3 206 -262 227 -296 6 -9 15 -21 20 -27 14 -16 25 -31 251 -335 109 -146 201
-266 206 -268 4 -2 8 -7 8 -12 0 -6 323 -444 383 -520 7 -8 59 -78 116 -155
58 -77 108 -141 113 -143 4 -2 8 -8 8 -14 0 -6 12 -24 26 -42 15 -17 57 -73
95 -124 63 -84 75 -97 69 -67 -1 5 -3 25 -6 45 -2 19 -9 71 -15 115 -13 93
-16 122 -24 190 -4 28 -8 61 -10 75 -2 14 -9 63 -15 110 -5 47 -12 95 -14 107
-3 12 -7 48 -11 80 -3 32 -7 69 -10 83 -2 14 -7 48 -10 75 -3 28 -10 82 -16
120 -11 78 -18 135 -24 180 -2 17 -6 46 -9 65 -2 19 -8 58 -11 85 -4 28 -8 64
-11 80 -2 17 -6 48 -8 70 -3 22 -7 51 -9 65 -5 23 -11 67 -23 170 -2 19 -6 50
-9 67 -3 18 -8 57 -11 85 -3 29 -8 64 -10 78 -3 14 -7 45 -9 70 -3 25 -7 59
-10 75 -2 17 -7 53 -10 80 -4 28 -8 60 -10 71 -2 12 -7 48 -10 80 -4 33 -9 68
-11 79 -2 11 -7 43 -10 70 -3 28 -7 61 -9 75 -2 14 -7 52 -11 85 -3 33 -8 63
-10 66 -2 4 -7 40 -10 80 -3 41 -7 76 -9 79 -2 3 -6 30 -10 60 -3 30 -8 69
-11 85 -2 17 -6 44 -8 61 -9 74 -18 141 -21 164 -2 14 -7 49 -10 79 -4 30 -8
61 -10 70 -1 9 -6 48 -11 86 -4 39 -9 73 -10 78 -1 4 -2 16 -3 27 -1 22 0 22
-52 9z"/>
<path d="M11842 9663 c24 -21 48 -42 54 -48 101 -92 179 -162 193 -175 38 -32
165 -146 191 -170 15 -14 60 -54 100 -90 41 -36 83 -74 95 -85 11 -11 59 -54
105 -95 47 -41 90 -79 96 -85 12 -11 142 -128 178 -160 12 -11 60 -54 107 -96
46 -41 104 -93 128 -115 25 -21 59 -52 77 -69 17 -16 49 -45 70 -63 42 -36
140 -125 214 -192 25 -23 67 -60 93 -83 27 -23 72 -63 100 -89 29 -27 59 -46
67 -43 21 6 443 126 455 130 6 1 17 4 25 7 8 3 42 13 75 23 33 9 130 36 215
61 85 24 164 47 175 49 11 3 65 18 120 35 56 16 110 31 120 33 11 2 27 7 35
10 47 20 162 43 205 41 502 -15 1021 -26 1015 -21 -3 2 -81 43 -173 91 -93 48
-210 109 -260 135 -51 27 -173 90 -272 141 -99 51 -216 112 -260 135 -44 23
-138 73 -210 110 -71 37 -136 72 -142 77 -7 6 -13 7 -13 3 0 -4 -6 -2 -13 4
-8 6 -67 38 -133 72 -65 34 -143 74 -171 90 -49 25 -83 37 -136 44 -12 2 -40
6 -62 10 -22 4 -49 8 -60 10 -11 2 -42 6 -70 10 -27 4 -58 8 -67 9 -10 0 -18
3 -18 6 0 3 -10 6 -22 7 -13 0 -36 3 -53 6 -16 3 -52 9 -80 13 -61 8 -82 12
-103 18 -9 3 -39 8 -67 11 -27 4 -59 9 -70 11 -11 1 -33 5 -50 8 -27 4 -74 12
-130 22 -11 2 -40 7 -65 9 -25 3 -52 8 -61 11 -9 2 -32 7 -50 9 -19 3 -45 7
-59 10 -25 5 -60 11 -127 20 -21 3 -45 7 -53 10 -8 2 -33 7 -55 10 -22 2 -51
7 -65 10 -14 4 -38 8 -55 10 -16 2 -46 6 -65 10 -19 3 -62 10 -95 15 -33 6
-73 12 -90 15 -16 3 -46 8 -65 10 -19 3 -55 10 -80 15 -52 11 -122 21 -165 26
-16 1 -30 3 -30 4 0 1 -9 3 -20 5 -37 7 -110 19 -125 21 -14 1 -183 30 -240
40 -14 2 -41 7 -60 10 -19 3 -47 7 -63 10 -26 4 -26 3 15 -33z"/>
<path d="M11525 9603 c3 -27 7 -70 10 -98 3 -27 8 -81 11 -120 2 -38 7 -86 10
-105 3 -19 7 -62 10 -95 2 -33 6 -78 9 -100 2 -22 7 -71 10 -110 3 -38 7 -83
10 -100 5 -43 13 -118 21 -205 3 -41 8 -86 9 -100 1 -14 6 -61 10 -105 3 -44
8 -93 10 -110 2 -16 7 -61 10 -100 4 -38 8 -81 10 -95 3 -14 7 -59 10 -100 3
-41 8 -93 10 -115 2 -22 7 -69 10 -105 4 -36 8 -81 10 -100 8 -75 21 -205 30
-300 3 -36 8 -83 11 -105 4 -38 9 -91 19 -215 3 -30 7 -73 10 -95 2 -22 7 -69
10 -105 3 -36 8 -83 10 -105 3 -22 7 -67 9 -100 3 -33 7 -79 10 -101 3 -23 8
-73 11 -110 3 -38 8 -91 12 -119 9 -82 11 -109 12 -137 1 -16 5 -28 9 -28 4 0
89 79 188 175 98 97 289 283 423 413 134 130 298 290 365 355 66 65 231 226
366 357 421 410 440 429 440 437 0 4 -22 24 -48 43 -26 19 -52 40 -58 45 -6 6
-28 24 -49 40 -21 17 -68 54 -104 83 -80 65 -45 37 -346 278 -138 110 -259
207 -270 217 -11 9 -92 74 -180 144 -88 70 -165 132 -172 137 -7 6 -18 16 -25
21 -31 23 -114 90 -124 100 -7 5 -35 28 -64 50 -29 22 -71 57 -94 77 -22 21
-45 38 -49 38 -4 0 -18 10 -31 23 -13 12 -40 36 -61 52 -21 17 -86 68 -145
115 -58 47 -123 99 -144 115 -21 17 -48 38 -60 49 -36 32 -83 66 -89 66 -3 0
-4 -21 -2 -47z"/>
<path d="M15397 9444 c-1 -1 -24 -5 -52 -8 -27 -4 -68 -9 -90 -12 -22 -2 -51
-7 -65 -9 -14 -3 -47 -7 -75 -10 -27 -3 -68 -8 -90 -11 -22 -3 -49 -7 -60 -9
-11 -1 -38 -5 -60 -9 -45 -7 -98 -14 -165 -22 -25 -3 -61 -7 -80 -10 -19 -3
-45 -6 -58 -8 -40 -6 -35 -13 35 -51 37 -21 76 -45 86 -53 9 -8 17 -12 17 -8
0 4 20 -7 44 -24 25 -16 47 -30 50 -30 3 0 40 -20 82 -45 41 -25 78 -45 80
-45 3 0 30 -16 60 -35 30 -19 56 -35 58 -35 2 0 64 -35 138 -78 74 -43 141
-81 149 -85 8 -4 32 -19 54 -32 22 -14 51 -31 65 -38 14 -7 59 -32 100 -57
115 -68 173 -100 193 -106 9 -4 17 -10 17 -15 0 -5 4 -9 9 -9 5 0 49 -23 98
-51 176 -103 206 -119 211 -115 4 5 -19 37 -60 86 -7 9 -19 27 -26 41 -8 14
-24 38 -37 53 -13 15 -43 58 -67 94 -23 37 -45 69 -48 72 -3 3 -17 21 -30 40
-13 19 -27 37 -30 40 -4 3 -15 20 -25 38 -11 17 -23 32 -27 32 -4 0 -8 5 -8
11 0 6 -38 63 -84 127 -46 64 -109 155 -141 202 -33 47 -61 87 -64 90 -6 5
-11 13 -49 72 -13 21 -43 33 -55 22z"/>
<path d="M435 9361 c-4 -3 -29 -6 -140 -15 -83 -7 -194 -17 -230 -21 -16 -2
-38 -4 -49 -4 -11 -1 7 -18 50 -48 38 -26 74 -51 79 -55 12 -11 271 -189 293
-203 10 -5 46 -31 82 -56 225 -158 300 -209 308 -209 4 0 14 -9 22 -20 8 -11
18 -20 23 -20 10 0 171 -112 175 -122 2 -5 9 -8 16 -8 7 0 21 -8 32 -17 10
-10 39 -31 64 -48 25 -16 77 -52 115 -79 39 -27 72 -49 75 -47 5 2 97 -8 134
-15 14 -2 3 14 -35 53 -100 103 -163 170 -274 288 -60 65 -126 134 -145 155
-19 20 -80 85 -135 144 -55 59 -127 135 -160 170 -33 34 -85 89 -115 122 l-55
59 -63 0 c-35 0 -65 -2 -67 -4z"/>
<path d="M8660 9089 c-52 -17 -102 -33 -110 -36 -8 -3 -20 -7 -27 -9 -21 -4
-117 -35 -138 -44 -20 -9 -52 -19 -70 -21 -5 -1 -41 -13 -80 -26 -38 -13 -77
-26 -85 -28 -8 -2 -35 -10 -60 -18 -126 -42 -462 -149 -477 -152 -10 -2 -31
-9 -48 -15 -16 -7 -50 -18 -75 -25 -25 -7 -202 -63 -395 -125 -192 -61 -386
-123 -430 -136 -44 -14 -88 -29 -97 -34 -10 -6 -24 -10 -31 -10 -7 0 -67 -18
-133 -39 -333 -109 -663 -213 -666 -210 -2 1 -13 -3 -26 -10 -13 -7 -31 -14
-40 -16 -17 -3 -211 -64 -335 -106 -31 -10 -63 -19 -70 -19 -7 0 -18 -5 -25
-12 -9 -9 53 -77 266 -290 152 -153 446 -449 652 -658 206 -208 728 -735 1160
-1170 432 -435 818 -825 858 -865 39 -41 72 -72 73 -67 1 4 2 18 4 32 1 14 5
39 8 55 3 17 8 57 12 90 4 33 8 74 10 90 2 17 7 53 10 80 6 54 13 109 20 165
3 19 7 60 10 90 4 30 8 66 10 80 3 14 7 50 11 80 3 30 7 66 10 80 2 14 6 52
10 85 3 33 8 71 10 85 2 14 7 50 10 80 11 103 22 196 29 240 2 14 7 52 10 85
3 33 8 71 10 85 12 84 15 110 20 155 3 28 8 68 11 90 2 22 6 56 8 75 6 60 18
154 22 175 2 10 6 49 10 85 3 36 8 74 10 85 2 11 6 46 9 79 4 33 8 62 10 65 2
4 6 40 10 80 4 41 9 84 11 95 2 12 6 46 9 76 3 30 7 66 9 80 2 14 7 54 11 90
4 36 9 76 11 90 3 14 7 43 9 65 9 87 16 141 20 165 2 14 7 57 10 95 4 39 8 77
10 85 2 8 7 40 10 70 5 48 14 122 30 250 3 19 7 58 10 85 3 28 9 68 12 90 3
22 7 58 9 80 2 22 6 56 8 75 3 19 8 58 11 85 3 28 8 66 11 86 8 58 13 119 11
119 -1 -1 -45 -14 -97 -31z"/>
<path d="M9109 9068 c0 -7 -2 -20 -4 -28 -5 -24 -24 -132 -30 -170 -3 -19 -7
-46 -10 -60 -3 -14 -7 -38 -10 -55 -3 -16 -7 -41 -10 -55 -3 -14 -8 -38 -10
-55 -8 -60 -14 -97 -20 -123 -3 -15 -7 -40 -10 -57 -2 -16 -7 -43 -10 -60 -6
-38 -16 -91 -22 -130 -7 -39 -11 -60 -13 -60 -1 0 -3 -16 -5 -35 -2 -19 -6
-48 -9 -65 -4 -16 -9 -46 -12 -65 -2 -19 -9 -58 -15 -86 -5 -28 -12 -64 -14
-80 -8 -47 -15 -88 -19 -110 -2 -12 -7 -39 -10 -60 -7 -46 -24 -143 -32 -181
-2 -16 -7 -39 -9 -53 -4 -25 -12 -69 -19 -105 -2 -11 -7 -41 -10 -66 -3 -25
-15 -95 -27 -155 -11 -60 -22 -125 -25 -144 -2 -19 -9 -57 -14 -85 -5 -27 -12
-67 -16 -89 -3 -21 -8 -48 -10 -60 -7 -34 -13 -72 -29 -166 -3 -19 -10 -61
-16 -93 -5 -32 -12 -71 -14 -87 -2 -16 -6 -37 -9 -47 -3 -10 -8 -36 -11 -58
-3 -23 -7 -52 -10 -65 -3 -13 -7 -40 -10 -60 -5 -34 -8 -53 -20 -110 -2 -14
-7 -45 -11 -70 -3 -24 -7 -47 -9 -50 -1 -3 -6 -25 -9 -50 -3 -25 -8 -56 -11
-70 -8 -37 -14 -70 -20 -114 -4 -21 -8 -46 -10 -55 -1 -9 -6 -36 -11 -61 -4
-25 -8 -47 -9 -50 -1 -3 -5 -30 -9 -60 -5 -30 -10 -64 -13 -75 -7 -35 -12 -59
-18 -100 -6 -45 -16 -100 -22 -130 -6 -30 -10 -55 -17 -105 -3 -25 -9 -57 -12
-72 -4 -19 -1 -28 7 -28 6 0 104 30 218 66 113 36 292 93 396 126 105 32 224
70 265 84 41 13 83 26 93 29 11 2 62 18 115 36 54 17 104 33 112 34 14 4 43
13 112 38 15 5 28 8 30 7 2 0 41 12 88 28 47 16 132 44 190 61 58 18 168 53
245 77 175 56 220 70 425 134 91 28 181 57 200 65 19 7 37 13 40 13 3 1 12 3
20 6 68 22 124 38 138 41 9 2 18 4 20 5 1 2 5 3 10 4 18 5 59 18 77 26 11 5
110 36 220 70 110 34 201 63 202 64 2 1 -8 15 -22 32 -13 16 -52 63 -85 104
-34 41 -69 84 -78 95 -10 11 -37 45 -62 75 -25 30 -49 60 -55 66 -5 7 -26 31
-45 55 -84 105 -186 224 -192 227 -5 2 -8 10 -8 18 0 8 -4 14 -8 14 -4 0 -24
21 -45 48 -20 26 -46 59 -59 73 -33 37 -93 110 -152 183 -125 154 -221 272
-231 282 -12 12 -56 65 -156 189 -40 50 -76 92 -79 95 -3 3 -35 41 -70 85 -35
44 -67 82 -70 85 -3 3 -34 41 -70 85 -36 44 -73 89 -82 100 -15 18 -152 184
-190 230 -9 11 -55 67 -103 125 -47 58 -97 119 -111 135 -13 17 -34 41 -45 55
-12 14 -33 41 -48 60 -14 19 -33 42 -41 50 -18 20 -30 35 -145 175 -49 61 -94
115 -100 121 -19 21 -50 59 -109 132 -32 39 -60 72 -62 72 -2 0 -4 -6 -5 -12z"/>
<path d="M1650 8344 c14 -15 32 -35 40 -44 8 -9 51 -56 95 -105 44 -49 103
-113 130 -143 69 -76 93 -102 144 -158 24 -27 78 -87 121 -134 43 -47 88 -96
100 -110 22 -26 126 -140 220 -243 139 -152 155 -170 265 -292 50 -55 99 -109
110 -121 22 -23 160 -175 188 -208 10 -11 55 -61 100 -110 45 -50 108 -120
141 -156 32 -36 71 -77 85 -91 14 -15 44 -48 66 -74 22 -26 64 -72 93 -103 30
-32 77 -83 105 -115 29 -33 64 -72 78 -89 l27 -29 21 29 c12 17 21 33 21 37 0
3 17 43 39 88 21 45 53 114 71 152 64 137 164 349 236 500 21 44 39 82 40 85
0 3 20 46 43 95 24 50 56 119 73 155 16 36 42 90 57 120 15 30 34 71 41 90 7
19 19 42 25 50 6 8 18 31 25 50 8 19 42 94 75 165 34 72 63 133 64 137 1 4 19
42 40 85 26 52 35 80 27 84 -6 4 -56 12 -111 19 -55 6 -109 14 -120 16 -11 3
-33 6 -50 8 -54 7 -138 18 -154 21 -9 2 -44 6 -76 10 -33 4 -69 9 -80 11 -11
2 -67 10 -125 19 -58 8 -122 17 -142 20 -76 10 -109 15 -145 20 -59 8 -116 17
-138 21 -11 2 -40 6 -65 8 -25 3 -92 12 -150 21 -58 8 -123 17 -145 20 -22 3
-51 8 -65 10 -14 2 -45 7 -70 10 -25 3 -56 8 -70 10 -14 3 -45 7 -69 10 -23 3
-55 7 -70 9 -36 6 -168 25 -211 30 -38 5 -98 14 -145 21 -16 3 -52 7 -80 10
-27 3 -63 8 -80 12 -16 4 -37 7 -45 8 -15 1 -111 14 -160 22 -31 4 -71 10
-135 18 -27 3 -61 8 -75 10 -14 3 -45 7 -70 11 -25 3 -56 7 -70 10 -14 2 -45
7 -70 10 l-45 6 25 -28z"/>
<path d="M4890 7797 c-10 -17 -22 -36 -27 -42 -4 -5 -18 -30 -31 -55 -12 -25
-37 -70 -55 -102 -17 -31 -84 -148 -147 -259 -63 -112 -119 -211 -125 -221 -5
-9 -23 -41 -39 -70 -15 -29 -34 -60 -42 -69 -8 -8 -14 -19 -14 -23 0 -5 -30
-60 -67 -125 -63 -111 -84 -149 -137 -243 -13 -24 -101 -180 -196 -347 -94
-166 -169 -305 -167 -307 2 -3 13 -6 23 -8 23 -5 328 -74 364 -83 14 -3 34 -8
44 -10 11 -2 45 -10 75 -18 31 -8 70 -16 86 -19 51 -10 76 -15 95 -21 10 -3
28 -8 39 -10 12 -3 31 -8 44 -11 12 -3 36 -7 52 -10 17 -3 44 -9 60 -14 17 -6
73 -19 125 -31 52 -11 113 -25 135 -30 22 -5 51 -12 65 -14 14 -3 54 -13 90
-22 36 -8 77 -17 91 -19 14 -2 38 -8 52 -13 15 -6 27 -8 27 -6 0 2 12 0 26 -6
15 -5 43 -12 63 -15 20 -3 43 -7 51 -11 8 -3 53 -14 100 -24 47 -11 94 -21
105 -24 42 -10 164 -37 248 -56 49 -10 92 -21 95 -23 4 -2 23 -7 42 -10 19 -3
50 -10 68 -15 18 -5 33 -10 35 -10 4 1 59 -11 127 -27 36 -9 76 -18 90 -21 14
-2 43 -9 65 -14 22 -5 51 -12 65 -15 14 -3 72 -16 130 -30 58 -14 112 -26 120
-28 17 -3 55 -12 115 -27 22 -5 49 -11 60 -13 28 -6 191 -43 315 -73 118 -28
136 -32 168 -39 12 -2 33 -6 47 -9 14 -3 37 -7 53 -10 15 -3 41 -10 57 -15 17
-5 42 -12 58 -15 24 -4 49 -10 97 -20 8 -2 15 -4 15 -5 0 -1 11 -4 25 -6 14
-2 52 -11 85 -19 33 -8 94 -21 135 -30 41 -10 89 -21 106 -26 41 -13 74 -19
74 -14 0 5 -19 23 -95 90 -38 33 -79 69 -91 80 -12 12 -53 48 -89 80 -37 33
-77 69 -89 80 -22 19 -152 135 -186 165 -9 8 -46 41 -81 72 -35 31 -73 65 -85
75 -12 10 -50 44 -85 75 -35 31 -73 65 -85 75 -23 20 -136 121 -189 168 -18
17 -61 55 -96 85 -35 30 -80 72 -101 92 -21 20 -38 34 -38 32 0 -3 -11 5 -24
18 -25 25 -147 135 -183 165 -27 24 -134 118 -177 156 -78 70 -96 86 -171 152
-44 39 -87 77 -95 85 -8 8 -51 46 -95 85 -44 38 -82 72 -85 75 -3 3 -43 39
-90 80 -79 69 -142 125 -180 160 -9 8 -49 44 -90 80 -41 36 -80 70 -86 75 -6
6 -44 39 -84 75 -41 36 -92 82 -114 102 -23 20 -50 45 -62 55 -44 37 -169 149
-196 174 -15 14 -53 47 -84 75 -32 27 -71 61 -86 76 l-28 28 -20 -33z"/>
</g>
</svg>
